Create cohorts based on patient demographics — demographicsCohort • CohortConstructor
…
cohort <- cdm |>
    demographicsCohort(name = "cohort4",
    ageRange = list(c(0, 19),c(20, 64),c(65, 150)),
    sex = c("Male", "Female", "Both"),
    minPriorObservation = 365)
#> ℹ Building new trimmed cohort
#> Adding demographics information
#> Creating initial cohort
#> Trim sex
#> Trim age
#> Trim prior observation
#> ✔ Cohort trimmed

attrition(cohort)
#> # A tibble: 54 × 7
#>    cohort_definition_id number_records number_subjects reason_id reason         
#>                   <int>          <int>           <int>     <int> <chr>          
#>  1                    1            100             100         1 Initial qualif…
#>  2                    1            100             100         2 Non-missing sex
#>  3                    1            100             100         3 Sex requiremen…
#>  4                    1            100             100         4 Non-missing ye…
#>  5                    1             50              50         5 Age requiremen…
#>  6                    1             43              43         6 Prior observat…
#>  7                    2            100             100         1 Initial qualif…
#>  8                    2            100             100         2 Non-missing sex
#>  9                    2             55              55         3 Sex requiremen…
#> 10                    2             55              55         4 Non-missing ye…
#> # ℹ 44 more rows
#> # ℹ 2 more variables: excluded_records <int>, excluded_subjects <int>
…
