…
cdm$cohort1 <- cdm$cohort1 |>
  addTableIntersectDate(
    tableName = "drug_exposure",
    nameStyle = "prior_drug",
    order = "last",
    window = c(-Inf, 0)
  ) |>
  addPriorObservation(priorObservationType = "date", name = "cohort1")

cdm$cohort1 |>
  entryAtFirstDate(dateColumns = c("prior_drug", "prior_observation"))
#> Joining with `by = join_by(cohort_definition_id, subject_id, cohort_end_date)`
#> # A tibble: 58 × 6
#>    cohort_definition_id subject_id cohort_start_date cohort_end_date prior_drug
#>                   <int>      <int> <date>            <date>          <date>    
#>  1                    1          1 2001-02-13        2004-01-26      2002-09-07
#>  2                    1          2 2009-02-01        2013-04-26      2012-09-13
#>  3                    1          3 2003-12-12        2015-01-23      2006-09-08
#>  4                    1          6 2008-01-02        2011-11-28      2010-12-09
#>  5                    1         11 1990-10-23        1999-01-24      1996-08-18
#>  6                    1         12 1981-05-22        1988-12-21      1988-04-28
#>  7                    1         13 2019-03-13        2019-07-07      2019-06-02
#>  8                    1         14 1999-12-24        2008-09-30      2007-07-14
#>  9                    1         16 2016-08-17        2019-04-24      2019-04-22
#> 10                    1         18 1972-06-06        1990-04-03      1990-02-08
#> # ℹ 48 more rows
#> # ℹ 1 more variable: prior_observation <date>
…
