…
cdm$cohort1 <- cdm$cohort1 |>
  addTableIntersectDate(
    tableName = "drug_exposure",
    nameStyle = "prior_drug",
    order = "last",
    window = c(-Inf, 0)
  ) |>
  addPriorObservation(priorObservationType = "date", name = "cohort1")

cdm$cohort1 |>
  entryAtLastDate(dateColumns = c("prior_drug", "prior_observation"))
#> Joining with `by = join_by(cohort_definition_id, subject_id, cohort_end_date)`
#> # A tibble: 64 × 6
#>    cohort_definition_id subject_id cohort_start_date cohort_end_date prior_drug
#>                   <int>      <int> <date>            <date>          <date>    
#>  1                    1          1 2001-08-04        2010-04-08      2001-08-04
#>  2                    1          4 1998-01-12        2004-03-03      1998-01-12
#>  3                    1          5 2009-06-27        2009-08-11      2009-06-27
#>  4                    1          6 2011-12-08        2012-06-09      2011-12-08
#>  5                    1          7 2000-01-16        2001-03-25      2000-01-16
#>  6                    1          8 1997-11-29        2000-05-25      1997-11-29
#>  7                    1          9 1989-12-09        1991-08-06      1989-12-09
#>  8                    1         10 2004-09-27        2005-03-31      2004-09-27
#>  9                    1         11 2009-11-15        2016-09-15      2009-11-15
#> 10                    1         12 1998-12-10        2003-10-04      1998-12-10
#> # ℹ 54 more rows
#> # ℹ 1 more variable: prior_observation <date>
…
