…
## Value

The cohort table.

## Examples

``` r
# \donttest{
library(CohortConstructor)
cdm <- mockCohortConstructor()
#> ℹ Reading GiBleed tables.
cdm$cohort1 |> exitAtObservationEnd()
#> # A tibble: 61 × 4
#>    cohort_definition_id subject_id cohort_start_date cohort_end_date
#>  *                <int>      <int> <date>            <date>         
#>  1                    1         43 1959-09-05        1970-12-29     
#>  2                    1         45 1969-10-24        2000-03-29     
#>  3                    1         81 1973-10-13        1983-05-23     
#>  4                    1         52 1980-05-07        1988-05-01     
#>  5                    1         51 1981-06-04        1985-03-23     
#>  6                    1         28 1982-08-21        2003-05-12     
#>  7                    1          2 1987-06-01        1989-06-21     
#>  8                    1         58 1987-09-22        2007-11-01     
#>  9                    1         40 1987-10-11        1998-07-23     
#> 10                    1         34 1988-05-09        1992-09-03     
#> # ℹ 51 more rows
…
