…
cdm$cohort1 <- cdm$cohort1 |>
  addTableIntersectDate(tableName = "observation", nameStyle = "next_obs", order = "first") |>
  addFutureObservation(futureObservationType = "date", name = "cohort1")

cdm$cohort1 |>
  exitAtFirstDate(dateColumns = c("next_obs", "future_observation"))
#> Joining with `by = join_by(cohort_definition_id, subject_id,
#> cohort_start_date)`
#> # A tibble: 63 × 6
#>    cohort_definition_id subject_id cohort_start_date cohort_end_date next_obs  
#>                   <int>      <int> <date>            <date>          <date>    
#>  1                    1          1 2001-08-27        2002-03-01      2002-03-01
#>  2                    1          2 2004-02-28        2004-11-16      2004-11-16
#>  3                    1          4 2014-12-22        2015-08-12      2015-08-12
#>  4                    1          5 1956-09-11        1956-09-29      1956-09-29
#>  5                    1          6 2015-01-04        2015-01-13      2015-01-13
#>  6                    1          7 1969-08-13        1969-09-13      1969-09-13
#>  7                    1         11 2018-03-14        2018-04-04      NA        
#>  8                    1         12 2004-11-10        2005-08-13      2005-08-13
#>  9                    1         13 1993-09-23        1993-09-23      1993-09-23
#> 10                    1         14 1990-06-10        1991-06-13      1991-06-13
#> # ℹ 53 more rows
#> # ℹ 1 more variable: future_observation <date>
…
