…
## Value

Cohort table

## Examples

``` r
# \donttest{
library(CohortConstructor)
cdm <- mockCohortConstructor()
#> ℹ Reading GiBleed tables.
# add 10 days to each cohort entry
cdm$cohort1 |>
  padCohortStart(days = 10)
#> # A tibble: 55 × 4
#>    cohort_definition_id subject_id cohort_start_date cohort_end_date
#>  *                <int>      <int> <date>            <date>         
#>  1                    1          4 1971-07-15        1977-11-13     
#>  2                    1         60 1973-11-25        1974-04-30     
#>  3                    1         45 1975-05-06        1978-05-31     
#>  4                    1         53 1975-10-28        1978-12-03     
#>  5                    1         58 1982-04-20        1995-03-24     
#>  6                    1         75 1982-08-22        1983-11-18     
#>  7                    1         31 1983-06-12        1984-09-07     
#>  8                    1         30 1985-11-26        1988-10-18     
#>  9                    1         24 1986-03-15        1987-04-02     
#> 10                    1         52 1988-05-21        1989-06-23     
#> # ℹ 45 more rows
…
