…
Cohort table

## Examples

``` r
# \donttest{
library(CohortConstructor)
cdm <- mockCohortConstructor()
#> ℹ Reading GiBleed tables.
cdm$cohort1 |>
  padCohortDate(
    cohortDate = "cohort_end_date",
    indexDate = "cohort_start_date",
    days = 10)
#> # A tibble: 58 × 4
#>    cohort_definition_id subject_id cohort_start_date cohort_end_date
#>  *                <int>      <int> <date>            <date>         
#>  1                    1          1 1968-09-22        1968-10-02     
#>  2                    1         29 1970-04-03        1970-04-13     
#>  3                    1         12 1972-08-13        1972-08-23     
#>  4                    1         26 1973-06-25        1973-07-05     
#>  5                    1         30 1974-04-21        1974-05-01     
#>  6                    1         65 1974-10-25        1974-11-04     
#>  7                    1         47 1979-09-01        1979-09-11     
#>  8                    1         36 1985-11-03        1985-11-13     
#>  9                    1         71 1988-11-05        1988-11-15     
#> 10                    1          4 1990-03-22        1990-04-01     
#> # ℹ 48 more rows
…
