…
## Value

Cohort table

## Examples

``` r
# \donttest{
library(CohortConstructor)
cdm <- mockCohortConstructor()
#> ℹ Reading GiBleed tables.
# add 10 days to each cohort exit
cdm$cohort1 |>
  padCohortEnd(days = 10)
#> # A tibble: 58 × 4
#>    cohort_definition_id subject_id cohort_start_date cohort_end_date
#>  *                <int>      <int> <date>            <date>         
#>  1                    1         21 1968-01-18        1970-05-28     
#>  2                    1         54 1978-10-30        1980-04-25     
#>  3                    1         58 1982-03-28        1986-09-25     
#>  4                    1          9 1985-05-14        1986-11-03     
#>  5                    1         57 1986-06-17        1986-07-21     
#>  6                    1         40 1987-09-11        1988-12-03     
#>  7                    1          7 1988-09-21        1991-06-07     
#>  8                    1         55 1988-12-15        1994-05-01     
#>  9                    1         72 1989-09-12        1992-01-14     
#> 10                    1          6 1990-12-12        1998-02-01     
#> # ℹ 48 more rows
…
