Set cohort start or cohort end — padCohortDate • CohortConstructor
…
    Value

    Cohort table

    Examples

# \donttest{
library(CohortConstructor)
cdm <- mockCohortConstructor()
cdm$cohort1 |>
  padCohortDate(
    cohortDate = "cohort_end_date",
    indexDate = "cohort_start_date",
    days = 10)
#> # A tibble: 59 × 4
#>    cohort_definition_id subject_id cohort_start_date cohort_end_date
#>  *                <int>      <int> <date>            <date>         
#>  1                    1         79 1970-03-13        1970-03-23     
#>  2                    1         19 1973-03-02        1973-03-12     
#>  3                    1         51 1978-04-26        1978-05-06     
#>  4                    1         70 1978-12-14        1978-12-24     
#>  5                    1         48 1979-06-15        1979-06-25     
#>  6                    1         69 1980-03-26        1980-04-05     
#>  7                    1         37 1982-05-14        1982-05-24     
#>  8                    1         35 1982-12-23        1983-01-02     
#>  9                    1         29 1984-07-25        1984-08-04     
#> 10                    1         60 1985-10-23        1985-11-02     
#> # ℹ 49 more rows
…
