…
Cohort table

## Examples

``` r
# \donttest{
library(CohortConstructor)
cdm <- mockCohortConstructor()
#> ℹ Reading GiBleed tables.

cdm$cohort1 |>
  requireTableIntersect(tableName = "drug_exposure",
                            indexDate = "cohort_start_date",
                            window = c(-Inf, 0))
#> # A tibble: 60 × 4
#>    cohort_definition_id subject_id cohort_start_date cohort_end_date
#>  *                <int>      <int> <date>            <date>         
#>  1                    1          1 2008-03-31        2008-06-15     
#>  2                    1          3 2017-05-04        2017-08-12     
#>  3                    1          4 2013-12-27        2016-01-20     
#>  4                    1          5 2013-12-22        2016-08-18     
#>  5                    1          6 2015-02-20        2015-08-09     
#>  6                    1          7 1987-03-05        1987-09-03     
#>  7                    1          8 1992-05-13        1992-06-12     
#>  8                    1         13 2009-03-18        2010-05-25     
#>  9                    1         14 2000-04-15        2000-04-20     
#> 10                    1         16 2011-11-17        2013-08-21     
#> # ℹ 50 more rows
…
