…
The cohort table with only records for individuals satisfying the age
requirement

## Examples

``` r
# \donttest{
library(CohortConstructor)
cdm <- mockCohortConstructor()
#> ℹ Reading GiBleed tables.
cdm$cohort1 |>
  requireAge(indexDate = "cohort_start_date",
             ageRange = list(c(18, 65)))
#> # A tibble: 33 × 4
#>    cohort_definition_id subject_id cohort_start_date cohort_end_date
#>  *                <int>      <int> <date>            <date>         
#>  1                    1          1 1995-04-27        1997-02-18     
#>  2                    1          4 2013-05-31        2015-04-04     
#>  3                    1          5 2017-06-29        2017-08-08     
#>  4                    1          6 2013-11-19        2014-09-10     
#>  5                    1          8 2010-09-28        2012-06-18     
#>  6                    1         10 1988-08-12        1989-09-06     
#>  7                    1         15 2013-10-22        2013-11-07     
#>  8                    1         16 1983-07-10        1987-10-07     
#>  9                    1         18 2014-07-24        2014-07-31     
#> 10                    1         19 2002-09-01        2005-12-09     
#> # ℹ 23 more rows
…
