…
Cohort table with only those entries satisfying the criteria

## Examples

``` r
# \donttest{
library(CohortConstructor)
cdm <- mockCohortConstructor()
#> ℹ Reading GiBleed tables.
cdm$cohort1 |>
  requireCohortIntersect(targetCohortTable = "cohort2",
                         targetCohortId = 1,
                         indexDate = "cohort_start_date",
                         window = c(-Inf, 0))
#> # A tibble: 23 × 4
#>    cohort_definition_id subject_id cohort_start_date cohort_end_date
#>  *                <int>      <int> <date>            <date>         
#>  1                    1          3 1988-09-07        1988-12-11     
#>  2                    1          9 2000-05-02        2004-03-29     
#>  3                    1         14 1983-09-06        1984-08-15     
#>  4                    1         17 2015-11-04        2015-11-16     
#>  5                    1         19 1986-12-24        1988-07-08     
#>  6                    1         21 2006-05-15        2008-05-28     
#>  7                    1         23 1990-05-12        1990-06-08     
#>  8                    1         28 1992-03-11        1994-09-05     
#>  9                    1         33 2019-12-17        2019-12-19     
#> 10                    1         34 1999-08-28        2003-07-07     
#> # ℹ 13 more rows
…
