…
## Value

The cohort table with any cohort entries that last less or more than the
required duration dropped

## Examples

``` r
# \donttest{
library(CohortConstructor)
cdm <- mockCohortConstructor()
#> ℹ Reading GiBleed tables.
cdm$cohort1 |>
  requireDuration(daysInCohort = c(2, Inf))
#> # A tibble: 60 × 4
#>    cohort_definition_id subject_id cohort_start_date cohort_end_date
#>  *                <int>      <int> <date>            <date>         
#>  1                    1          1 2013-05-23        2015-04-13     
#>  2                    1          2 2007-06-25        2008-10-06     
#>  3                    1          3 2012-12-13        2012-12-25     
#>  4                    1          7 2018-04-03        2018-06-04     
#>  5                    1          8 2013-09-13        2014-01-20     
#>  6                    1          9 2014-12-21        2015-11-12     
#>  7                    1         10 2005-03-17        2007-11-03     
#>  8                    1         11 2015-08-27        2016-06-28     
#>  9                    1         12 1999-12-20        2001-10-25     
#> 10                    1         13 2011-09-24        2016-07-13     
#> # ℹ 50 more rows
…
