…
## Value

Cohort table with the specified cohorts sampled.

## Examples

``` r
# \donttest{
library(CohortConstructor)
cdm <- mockCohortConstructor()
#> ℹ Reading GiBleed tables.

cdm$cohort2 |> sampleCohorts(cohortId = 1, n = 10)
#> # A tibble: 116 × 4
#>    cohort_definition_id subject_id cohort_start_date cohort_end_date
#>  *                <int>      <int> <date>            <date>         
#>  1                    1         44 2015-10-22        2015-10-24     
#>  2                    1          2 2002-01-08        2002-06-10     
#>  3                    1          2 2005-10-31        2008-03-11     
#>  4                    1         34 2000-04-09        2001-04-13     
#>  5                    1         47 2016-12-11        2017-05-15     
#>  6                    1         70 2004-04-24        2005-06-05     
#>  7                    1         70 2005-06-27        2005-08-02     
#>  8                    1         68 1980-09-27        1982-05-14     
#>  9                    1         68 1982-05-15        1986-12-23     
#> 10                    1         68 1986-12-24        1987-04-04     
#> # ℹ 106 more rows
…
