…
cdm$my_cohort <- cdm$cohort1 |>
  addAge(ageGroup = list("child" = c(0, 17), "adult" = c(18, Inf))) |>
  addSex(name = "my_cohort") |>
  stratifyCohorts(
    strata = list("sex", c("sex", "age_group")), name = "my_cohort"
  )

cdm$my_cohort
#> # A tibble: 112 × 5
#>    cohort_definition_id subject_id cohort_start_date cohort_end_date   age
#>  *                <int>      <int> <date>            <date>          <int>
#>  1                    2          1 2003-05-04        2003-10-23         41
#>  2                    1          2 1992-08-18        2008-04-17         40
#>  3                    1          4 2004-08-17        2004-08-22         36
#>  4                    1          6 2009-12-23        2015-12-23          9
#>  5                    1          7 2019-05-11        2019-05-12         34
#>  6                    1          8 2008-11-15        2018-02-21         58
#>  7                    1          9 2008-01-15        2008-04-02         42
#>  8                    2         10 1994-10-09        1997-09-04         11
#>  9                    2         11 1972-12-02        1973-05-02         18
#> 10                    1         12 1994-03-30        1994-10-12         16
#> # ℹ 102 more rows
…
