…
``` r
cdm$drugs_extend <- conceptCohort(cdm, 
                           conceptSet = drug_codes,
                           overlap = "extend",
                           name = "drugs_extend")

cdm$drugs_extend |>
  attrition()
#> # A tibble: 30 × 7
#>    cohort_definition_id number_records number_subjects reason_id reason         
#>                   <int>          <int>           <int>     <int> <chr>          
#>  1                    1            137             137         1 Initial qualif…
#>  2                    1            137             137         2 Record in obse…
#>  3                    1            137             137         3 Not missing re…
#>  4                    1            137             137         4 Add overlappin…
#>  5                    1            137             137         5 Record in obse…
#>  6                    1            137             137         6 Not missing re…
#>  7                    2          14205            2679         1 Initial qualif…
#>  8                    2          14205            2679         2 Record in obse…
#>  9                    2          14205            2679         3 Not missing re…
#> 10                    2          13905            2679         4 Add overlappin…
#> # ℹ 20 more rows
#> # ℹ 2 more variables: excluded_records <int>, excluded_subjects <int>
```
…
#> 4                    4 demographics_4 18_65     Male  
#> 5                    5 demographics_5 66_120    Female
#> 6                    6 demographics_6 66_120    Male
cohortCount(cdm$age_sex_cohorts)
#> # A tibble: 6 × 3
#>   cohort_definition_id number_records number_subjects
#>                  <int>          <int>           <int>
#> 1                    1           1373            1373
#> 2                    2           1321            1321
#> 3                    3           1373            1373
#> 4                    4           1321            1321
#> 5                    5            393             393
#> 6                    6            378             378
attrition(cdm$age_sex_cohorts)
#> # A tibble: 30 × 7
#>    cohort_definition_id number_records number_subjects reason_id reason         
#>                   <int>          <int>           <int>     <int> <chr>          
#>  1                    1           2694            2694         1 Initial qualif…
#>  2                    1           2694            2694         2 Non-missing sex
#>  3                    1           1373            1373         3 Sex requiremen…
#>  4                    1           1373            1373         4 Non-missing ye…
#>  5                    1           1373            1373         5 Age requiremen…
#>  6                    2           2694            2694         1 Initial qualif…
#>  7                    2           2694            2694         2 Non-missing sex
#>  8                    2           1321            1321         3 Sex requiremen…
#>  9                    2           1321            1321         4 Non-missing ye…
#> 10                    2           1321            1321         5 Age requiremen…
#> # ℹ 20 more rows
#> # ℹ 2 more variables: excluded_records <int>, excluded_subjects <int>
```
…
