…
The function is very powerful and multiple cohorts can be created in one
go, in this example we will create cohorts by “age and sex” and by
“year”.

``` r
cdm$stratified <- cdm$medications |>
  addAge(ageGroup = list("child" = c(0,17), "18_to_65" = c(18,64), "65_and_over" = c(65, Inf))) |>
  addSex() |>
  mutate(year = get_year(cohort_start_date)) |>
  stratifyCohorts(strata = list(c("sex", "age_group"), "year"), name = "stratified")

cohortCount(cdm$stratified)
#> # A tibble: 232 × 3
#>    cohort_definition_id number_records number_subjects
#>                   <int>          <int>           <int>
#>  1                    1           2941            2894
#>  2                    2            380             370
#>  3                    3           1397            1382
#>  4                    4           2916            2857
#>  5                    5            336             328
#>  6                    6           1395            1373
#>  7                    7            435             435
#>  8                    8              0               0
#>  9                    9              0               0
#> 10                   10            395             395
#> # ℹ 222 more rows
settings(cdm$stratified)
#> # A tibble: 232 × 11
#>    cohort_definition_id cohort_name          target_cohort_id target_cohort_name
#>                   <int> <chr>                           <int> <chr>             
#>  1                    1 acetaminophen_femal…                1 acetaminophen     
#>  2                    2 acetaminophen_femal…                1 acetaminophen     
#>  3                    3 acetaminophen_femal…                1 acetaminophen     
#>  4                    4 acetaminophen_male_…                1 acetaminophen     
#>  5                    5 acetaminophen_male_…                1 acetaminophen     
#>  6                    6 acetaminophen_male_…                1 acetaminophen     
#>  7                    7 diclofenac_female_1…                2 diclofenac        
#>  8                    8 diclofenac_female_6…                2 diclofenac        
#>  9                    9 diclofenac_female_c…                2 diclofenac        
#> 10                   10 diclofenac_male_18_…                2 diclofenac        
#> # ℹ 222 more rows
#> # ℹ 7 more variables: cdm_version <chr>, vocabulary_version <chr>,
#> #   target_cohort_table_name <chr>, strata_columns <chr>, sex <chr>,
#> #   age_group <chr>, year <dbl>
```
…
