Splitting cohorts • CohortConstructor
…
We can stratify cohorts based on specified columns using the function
stratifyCohorts(). In this example, let’s stratify the
medications cohort by age and sex.

cdm$stratified <- cdm$medications |>
  addAge(ageGroup = list("Child" = c(0,17), "18 to 65" = c(18,64), "65 and Over" = c(65, Inf))) |>
  addSex(name = "stratified") |>
  stratifyCohorts(strata = list("sex", "age_group", c("sex", "age_group")), name = "stratified")

settings(cdm$stratified)
#> # A tibble: 22 × 10
#>    cohort_definition_id cohort_name          target_cohort_id target_cohort_name
#>                   <int> <chr>                           <int> <chr>             
#>  1                    1 acetaminophen_female                1 acetaminophen     
#>  2                    2 acetaminophen_male                  1 acetaminophen     
#>  3                    3 diclofenac_female                   2 diclofenac        
#>  4                    4 diclofenac_male                     2 diclofenac        
#>  5                    5 acetaminophen_18_to…                1 acetaminophen     
#>  6                    6 acetaminophen_65_an…                1 acetaminophen     
#>  7                    7 acetaminophen_child                 1 acetaminophen     
#>  8                    8 diclofenac_18_to_65                 2 diclofenac        
#>  9                    9 diclofenac_65_and_o…                2 diclofenac        
#> 10                   10 diclofenac_child                    2 diclofenac        
#> # ℹ 12 more rows
#> # ℹ 6 more variables: cdm_version <chr>, vocabulary_version <chr>,
#> #   target_cohort_table_name <chr>, strata_columns <chr>, sex <chr>,
#> #   age_group <chr>
…
